0016_a2r.jpg
0017_a2v.jpg
0018_a3r.jpg
0019_a3v.jpg
0020_a4r.jpg
0021_a4v.jpg
0022_a5r.jpg
0023_a5v.jpg
0024_a6r.jpg
0025_a6v.jpg
0026_a7r.jpg
0027_a7v.jpg
0028_a8r.jpg
0029_a8v.jpg
0030_b1r.jpg
0031_b1v.jpg
0032_b2r.jpg
0033_b2v.jpg
0034_b3r.jpg
0035_b3v.jpg
0036_b4r.jpg
0037_b4v.jpg
0038_b5r.jpg
0039_b5v.jpg
0040_b6r.jpg
0041_b6v.jpg
0042_b7r.jpg
0043_b7v.jpg
0044_b8r.jpg
0045_b8v.jpg
0046_c1r.jpg
0047_c1v.jpg
0048_c2r.jpg
0049_c2v.jpg
0050_c3r.jpg
0051_c3v.jpg
0052_c4r.jpg
0053_c4v.jpg
0054_c5r.jpg
0055_c5v.jpg
0056_c6r.jpg
0057_c6v.jpg
0058_c7r.jpg
0059_c7v.jpg
0060_c8r.jpg
0061_c8v.jpg
0062_d1r.jpg
0063_d1v.jpg
0064_d2r.jpg
0065_d2v.jpg
0066_d3r.jpg
0067_d3v.jpg
0068_d4r.jpg
0069_d4v.jpg
0070_d5r.jpg
0071_d5v.jpg
0072_d6r.jpg
0073_d6v.jpg
0074_d7r.jpg
0075_d7v.jpg
0076_d8r.jpg
0077_d8v.jpg
0078_e1r.jpg
0079_e1v.jpg
0080_e2r.jpg
0081_e2v.jpg
0082_e3r.jpg
0083_e3v.jpg
0084_e4r.jpg
0085_e4v.jpg
0086_e5r.jpg
0087_e5v.jpg
0088_e6r.jpg
0089_e6v.jpg
0090_e7r.jpg
0091_e7v.jpg
0092_e8r.jpg
0093_e8v.jpg
0094_f1r.jpg
0095_f1v.jpg
0096_f2r.jpg
0097_f2v.jpg
0098_f3r.jpg
0099_f3v.jpg
0100_f4r.jpg
0101_f4v.jpg
0102_f5r.jpg
0103_f5v.jpg
0104_f6r.jpg
0105_f6v.jpg
0106_f7r.jpg
0107_f7v.jpg
0108_f8r.jpg
0109_f8v.jpg
0110_g1r.jpg
0111_g1v.jpg
0112_g2r.jpg
0113_g2v.jpg
0114_g3r.jpg
0115_g3v.jpg
0116_g4r.jpg
0117_g4v.jpg
0118_g5r.jpg
0119_g5v.jpg
0120_g6r.jpg
0121_g6v.jpg
0122_g7r.jpg
0123_g7v.jpg
0124_g8r.jpg
0125_g8v.jpg
0126_h1r.jpg
0127_h1v.jpg
0128_h2r.jpg
0129_h2v.jpg
0130_h3r.jpg
0131_h3v.jpg
0132_h4r.jpg
0133_h4v.jpg
0134_h5r.jpg
0135_h5v.jpg
0136_h6r.jpg
0137_h6v.jpg
0138_h7r.jpg
0139_h7v.jpg
0140_h8r.jpg
0141_h8v.jpg
0142_i1r.jpg
0143_i1v.jpg
0144_i2r.jpg
0145_i2v.jpg
0146_i3r.jpg
0147_i3v.jpg
0148_i4r.jpg
0149_i4v.jpg
0150_i5r.jpg
0151_i5v.jpg
0152_i6r.jpg
0153_i6v.jpg
0154_i7r.jpg
0155_i7v.jpg
0156_i8r.jpg
0157_i8v.jpg
0158_k1r.jpg
0159_k1v.jpg
0160_k2r.jpg
0161_k2v.jpg
0162_k3r.jpg
0163_k3v.jpg
0164_k4r.jpg
0165_k4v.jpg
0166_k5r.jpg
0167_k5v.jpg
0168_k6r.jpg
0169_k6v.jpg
0170_k7r.jpg
0171_k7v.jpg
0172_k8r.jpg
0173_k8v.jpg
0174_l1r.jpg
0175_l1v.jpg
0176_l2r.jpg
0177_l2v.jpg
0178_l3r.jpg
0179_l3v.jpg
0180_l4r.jpg
0181_l4v.jpg
0182_l5r.jpg
0183_l5v.jpg
0184_l6r.jpg
0185_l6v.jpg
0186_l7r.jpg
0187_l7v.jpg
0188_l8r.jpg
0189_l8v.jpg
0190_m1r.jpg
0191_m1v.jpg
0192_m2r.jpg
0193_m2v.jpg
0194_m3r.jpg
0195_m3v.jpg